%!PS-Adobe-2.0 EPSF-2.0
%%BoundingBox:  0 0 567 409
%%Title: /afs/hep.man.ac.uk/u/aporter/Manchester/mphys/root/eventnumbervdm2near.eps: c5
%%Creator: ROOT Version 5.34/20
%%CreationDate: Thu Oct 23 14:44:43 2014
%%EndComments
%%BeginProlog
80 dict begin
/s {stroke} def /l {lineto} def /m {moveto} def /t {translate} def
/r {rotate} def /rl {roll}  def /R {repeat} def
/d {rlineto} def /rm {rmoveto} def /gr {grestore} def /f {eofill} def
/c {setrgbcolor} def /black {0 setgray} def /sd {setdash} def
/cl {closepath} def /sf {scalefont setfont} def /lw {setlinewidth} def
/box {m dup 0 exch d exch 0 d 0 exch neg d cl} def
/NC{systemdict begin initclip end}def/C{NC box clip newpath}def
/bl {box s} def /bf {box f} def /Y { 0 exch d} def /X { 0 d} def 
/K {{pop pop 0 moveto} exch kshow} bind def
/ita {/ang 15 def gsave [1 0 ang dup sin exch cos div 1 0 0] concat} def 
/mp {newpath /y exch def /x exch def} def
/side {[w .77 mul w .23 mul] .385 w mul sd w 0 l currentpoint t -144 r} def
/mr {mp x y w2 0 360 arc} def /m24 {mr s} def /m20 {mr f} def
/mb {mp x y w2 add m w2 neg 0 d 0 w neg d w 0 d 0 w d cl} def
/mt {mp x y w2 add m w2 neg w neg d w 0 d cl} def
/m21 {mb f} def /m25 {mb s} def /m22 {mt f} def /m26{mt s} def
/m23 {mp x y w2 sub m w2 w d w neg 0 d cl f} def
/m27 {mp x y w2 add m w3 neg w2 neg d w3 w2 neg d w3 w2 d cl s} def
/m28 {mp x w2 sub y w2 sub w3 add m w3 0 d  0 w3 neg d w3 0 d 0 w3 d w3 0 d  0 w3 d w3 neg 0 d 0 w3 d w3 neg 0 d 0 w3 neg d w3 neg 0 d cl s } def
/m29 {mp gsave x w2 sub y w2 add w3 sub m currentpoint t 4 {side} repeat cl fill gr} def
/m30 {mp gsave x w2 sub y w2 add w3 sub m currentpoint t 4 {side} repeat cl s gr} def
/m31 {mp x y w2 sub m 0 w d x w2 sub y m w 0 d x w2 sub y w2 add m w w neg d x w2 sub y w2 sub m w w d s} def
/m32 {mp x y w2 sub m w2 w d w neg 0 d cl s} def
/m33 {mp x y w2 add m w3 neg w2 neg d w3 w2 neg d w3 w2 d cl f} def
/m34 {mp x w2 sub y w2 sub w3 add m w3 0 d  0 w3 neg d w3 0 d 0 w3 d w3 0 d  0 w3 d w3 neg 0 d 0 w3 d w3 neg 0 d 0 w3 neg d w3 neg 0 d cl f } def
/m2 {mp x y w2 sub m 0 w d x w2 sub y m w 0 d s} def
/m5 {mp x w2 sub y w2 sub m w w d x w2 sub y w2 add m w w neg d s} def
/reEncode {exch findfont dup length dict begin {1 index /FID eq  {pop pop} {def} ifelse } forall /Encoding exch def currentdict end dup /FontName get exch definefont pop } def [/Times-Bold /Times-Italic /Times-BoldItalic /Helvetica /Helvetica-Oblique
 /Helvetica-Bold /Helvetica-BoldOblique /Courier /Courier-Oblique /Courier-Bold /Courier-BoldOblique /Times-Roman /AvantGarde-Book /AvantGarde-BookOblique /AvantGarde-Demi /AvantGarde-DemiOblique /Bookman-Demi /Bookman-DemiItalic /Bookman-Light
 /Bookman-LightItalic /Helvetica-Narrow /Helvetica-Narrow-Bold /Helvetica-Narrow-BoldOblique /Helvetica-Narrow-Oblique /NewCenturySchlbk-Roman /NewCenturySchlbk-Bold /NewCenturySchlbk-BoldItalic /NewCenturySchlbk-Italic /Palatino-Bold
 /Palatino-BoldItalic /Palatino-Italic /Palatino-Roman ] {ISOLatin1Encoding reEncode } forall
%%EndProlog
%%BeginSetup
%%EndSetup
newpath  gsave  .25 .25 scale  gsave  0 0 t black[  ] 0 sd 3 lw 1 1 1 c 2268 1635 0 0 bf black 1 1 1 c 1837 1324 317 229 bf black 1837 1324 317 229 bl 1 1 1 c 1837 1324 317 229 bf black 1837 1324 317 229 bl 317 229 m 1837 X s
 gsave  2268 1635 0 0 C 2130.87 72.8655 t 0 r /Times-Bold findfont 76.4199 sf 0 0 m (\)) show NC gr 
 gsave  2268 1635 0 0 C 2105.99 104.855 t 0 r /Times-Bold findfont 51.539 sf 0 0 m (2) show NC gr 
 gsave  2268 1635 0 0 C 1972.7 72.8655 t 0 r /Times-Bold findfont 76.4199 sf 0 0 m ( \(eV) show NC gr 
 gsave  2268 1635 0 0 C 1947.82 104.855 t 0 r /Times-Bold findfont 51.539 sf 0 0 m (2) show NC gr 
 gsave  2268 1635 0 0 C 1883.84 72.8655 t 0 r /Times-Bold findfont 76.4199 sf 0 0 m (m) show NC gr 
 gsave  2268 1635 0 0 C 1837.63 72.8655 t 0 r /Symbol findfont 76.4199 sf 0 0 m (D) show NC gr  317 249 m -20 Y s 338 269 m -40 Y s
 gsave  2268 1635 0 0 C 351.887 179.498 t 0 r /Helvetica findfont 35.5441 sf 0 0 m (\2552) show NC gr 
 gsave  2268 1635 0 0 C 293.239 156.394 t 0 r /Helvetica findfont 53.3162 sf 0 0 m (10) show NC gr  473 249 m -20 Y s 552 249 m -20 Y s 609 249 m -20 Y s 652 249 m -20 Y s 688 249 m -20 Y s 718 249 m -20 Y s 744 249 m -20 Y s 767 249 m -20 Y s 787
 269 m -40 Y s
 gsave  2268 1635 0 0 C 801.521 179.498 t 0 r /Helvetica findfont 35.5441 sf 0 0 m (\2551) show NC gr 
 gsave  2268 1635 0 0 C 742.873 156.394 t 0 r /Helvetica findfont 53.3162 sf 0 0 m (10) show NC gr  923 249 m -20 Y s 1002 249 m -20 Y s 1058 249 m -20 Y s 1102 249 m -20 Y s 1137 249 m -20 Y s 1167 249 m -20 Y s 1193 249 m -20 Y s 1216 249 m -20 Y s
 1237 269 m -40 Y s
 gsave  2268 1635 0 0 C 1236.89 154.919 t 0 r  -14 0 t /Helvetica findfont 53.3162 sf 0 0 m (1) show NC gr  1372 249 m -20 Y s 1451 249 m -20 Y s 1507 249 m -20 Y s 1551 249 m -20 Y s 1587 249 m -20 Y s 1617 249 m -20 Y s 1643 249 m -20 Y s 1666 249
 m -20 Y s 1686 269 m -40 Y s
 gsave  2268 1635 0 0 C 1686.31 154.919 t 0 r  -29 0 t /Helvetica findfont 53.3162 sf 0 0 m (10) show NC gr  1822 249 m -20 Y s 1901 249 m -20 Y s 1957 249 m -20 Y s 2000 249 m -20 Y s 2036 249 m -20 Y s 2066 249 m -20 Y s 2092 249 m -20 Y s 2115 249
 m -20 Y s 2136 269 m -40 Y s
 gsave  2268 1635 0 0 C 2153.98 179.498 t 0 r /Helvetica findfont 35.5441 sf 0 0 m (2) show NC gr 
 gsave  2268 1635 0 0 C 2095.33 156.394 t 0 r /Helvetica findfont 53.3162 sf 0 0 m (10) show NC gr  317 229 m 1324 Y s
 gsave  2268 1635 0 0 C 163.503 796.189 t 90 r /Times-Bold findfont 76.4199 sf 0 0 m 
 724 685 660 626 592 567 533 491 472 439 401 367 325 306 263 242 223 193 168 125 91 53 19
( events in near detector) K NC gr 
 gsave  2268 1635 0 0 C 140.399 771.308 t 90 r /Times-Bold findfont 51.539 sf 0 0 m (0) show NC gr 
 gsave  2268 1635 0 0 C 163.503 733.987 t 90 r /Symbol findfont 76.4199 sf 0 0 m (p) show NC gr 
 gsave  2268 1635 0 0 C 163.503 629.131 t 90 r /Times-Bold findfont 76.4199 sf 0 0 m (NC) show NC gr  373 317 m -56 X s 345 346 m -28 X s 345 375 m -28 X s 345 403 m -28 X s 345 432 m -28 X s 373 461 m -56 X s 345 489 m -28 X s 345 518 m -28 X s 345
 547 m -28 X s 345 575 m -28 X s 373 604 m -56 X s 345 633 m -28 X s 345 661 m -28 X s 345 690 m -28 X s 345 718 m -28 X s 373 747 m -56 X s 345 776 m -28 X s 345 804 m -28 X s 345 833 m -28 X s 345 862 m -28 X s 373 890 m -56 X s 345 919 m -28 X s
 345 948 m -28 X s 345 976 m -28 X s 345 1005 m -28 X s 373 1034 m -56 X s 345 1062 m -28 X s 345 1091 m -28 X s 345 1120 m -28 X s 345 1148 m -28 X s 373 1177 m -56 X s 345 1206 m -28 X s 345 1234 m -28 X s 345 1263 m -28 X s 345 1292 m -28 X s 373
 1320 m -56 X s 345 1349 m -28 X s 345 1378 m -28 X s 345 1406 m -28 X s 345 1435 m -28 X s 373 1464 m -56 X s 373 317 m -56 X s 345 289 m -28 X s 345 260 m -28 X s 345 231 m -28 X s 373 1464 m -56 X s 345 1492 m -28 X s 345 1521 m -28 X s 345 1550 m
 -28 X s
 gsave  2268 1635 0 0 C 158.171 298.571 t 0 r /Helvetica findfont 53.3162 sf 0 0 m (14000) show NC gr 
 gsave  2268 1635 0 0 C 158.171 442.525 t 0 r /Helvetica findfont 53.3162 sf 0 0 m (15000) show NC gr 
 gsave  2268 1635 0 0 C 158.171 584.701 t 0 r /Helvetica findfont 53.3162 sf 0 0 m (16000) show NC gr 
 gsave  2268 1635 0 0 C 158.171 728.655 t 0 r /Helvetica findfont 53.3162 sf 0 0 m (17000) show NC gr 
 gsave  2268 1635 0 0 C 158.171 872.609 t 0 r /Helvetica findfont 53.3162 sf 0 0 m (18000) show NC gr 
 gsave  2268 1635 0 0 C 158.171 1014.79 t 0 r /Helvetica findfont 53.3162 sf 0 0 m (19000) show NC gr 
 gsave  2268 1635 0 0 C 158.171 1158.74 t 0 r /Helvetica findfont 53.3162 sf 0 0 m (20000) show NC gr 
 gsave  2268 1635 0 0 C 158.171 1302.69 t 0 r /Helvetica findfont 53.3162 sf 0 0 m (21000) show NC gr 
 gsave  2268 1635 0 0 C 158.171 1444.87 t 0 r /Helvetica findfont 53.3162 sf 0 0 m (22000) show NC gr  0 1 1 c 6 lw black 0 1 1 c 338 1443 m 521 X 18 -1 d 108 X 18 -1 d 36 X 18 -1 d 18 X 18 -1 d 18 -1 d 18 -1 d 18 -1 d 18 -1 d 18 -2 d 18 -2 d 18 -2 d
 18 -3 d 18 -4 d 18 -4 d 18 -5 d 18 -6 d 18 -7 d 18 -8 d 18 -10 d 18 -12 d 18 -14 d 18 -17 d 18 -20 d 18 -23 d 18 -27 d 18 -32 d 18 -37 d 18 -43 d 17 -48 d 18 -54 d 18 -61 d 18 -67 d 18 -72 d 18 -77 d 18 -78 d 18 -78 d 18 -76 d 18 -68 d 18 -58 d 18
 -45 d 18 -27 d 18 -9 d 18 11 d 18 30 d 18 45 d 18 54 d 18 57 d 18 54 d 18 44 d 18 31 d 18 15 d 18 3 d 18 -5 d 18 -12 d 18 -14 d 18 -8 d 18 -2 d 18 4 d 18 2 d 18 6 d 18 9 d 18 4 d s 1 0 0 c black 1 0 0 c 338 1443 m 611 X 18 -1 d 90 X 18 -1 d 36 X 18
 -1 d 18 X 18 -1 d 18 X 18 -1 d 18 -1 d 18 -2 d 18 -1 d 18 -2 d 18 -2 d 18 -3 d 18 -3 d 18 -3 d 18 -5 d 18 -5 d 18 -6 d 18 -8 d 18 -8 d 18 -10 d 18 -12 d 18 -14 d 18 -16 d 18 -19 d 17 -21 d 18 -24 d 18 -27 d 18 -29 d 18 -31 d 18 -34 d 18 -34 d 18 -34
 d 18 -33 d 18 -30 d 18 -26 d 18 -19 d 18 -12 d 18 -4 d 18 5 d 18 13 d 18 19 d 18 24 d 18 25 d 18 24 d 18 19 d 18 13 d 18 7 d 18 1 d 18 -2 d 18 -5 d 18 -6 d 18 -4 d 18 -1 d 18 2 d 18 1 d 18 3 d 18 4 d 18 2 d s 0 1 0 c black 0 1 0 c 338 1443 m 773 X
 18 -1 d 108 X 18 -1 d 36 X 18 -1 d 18 X 18 -1 d 18 -1 d 18 -1 d 18 -1 d 18 -1 d 18 -2 d 18 -2 d 18 -2 d 18 -2 d 18 -3 d 18 -3 d 17 -4 d 18 -5 d 18 -4 d 18 -6 d 18 -5 d 18 -6 d 18 -6 d 18 -6 d 18 -6 d 18 -6 d 18 -4 d 18 -4 d 18 -2 d 18 -1 d 18 1 d 18
 3 d 18 3 d 18 4 d 18 5 d 18 4 d 18 4 d 18 2 d 18 1 d 36 X 18 -1 d 18 -1 d 18 -1 d 36 X 18 1 d 18 X 18 1 d 18 X s 0 0 1 c black 0 0 1 c 338 1443 m 647 X 18 -1 d 108 X 18 -1 d 18 X 18 -1 d 18 X 18 -1 d 18 X 18 -1 d 18 -1 d 18 -1 d 18 -2 d 18 -2 d 18
 -2 d 18 -2 d 18 -3 d 18 -4 d 18 -4 d 18 -5 d 18 -6 d 18 -6 d 18 -8 d 18 -10 d 18 -11 d 18 -12 d 17 -14 d 18 -16 d 18 -18 d 18 -20 d 18 -21 d 18 -23 d 18 -23 d 18 -23 d 18 -22 d 18 -20 d 18 -17 d 18 -13 d 18 -8 d 18 -3 d 18 3 d 18 9 d 18 13 d 18 16 d
 18 17 d 18 16 d 18 13 d 18 9 d 18 4 d 18 1 d 18 -1 d 18 -4 d 18 -4 d 18 -2 d 18 -1 d 18 1 d 18 1 d 18 2 d 18 2 d 18 2 d s 0.35 0.83 0.33 c black 0.35 0.83 0.33 c 338 1443 m 575 X 18 -1 d 108 X 18 -1 d 36 X 18 -1 d 18 X 18 -1 d 18 -1 d 18 -1 d 18 -1
 d 18 -2 d 18 -1 d 18 -2 d 18 -3 d 18 -3 d 18 -3 d 18 -4 d 18 -5 d 18 -6 d 18 -7 d 18 -9 d 18 -9 d 18 -12 d 18 -14 d 18 -16 d 18 -19 d 18 -22 d 18 -25 d 17 -28 d 18 -32 d 18 -36 d 18 -40 d 18 -42 d 18 -45 d 18 -47 d 18 -46 d 18 -44 d 18 -41 d 18 -34
 d 18 -26 d 18 -17 d 18 -5 d 18 7 d 18 17 d 18 27 d 18 32 d 18 34 d 18 31 d 18 27 d 18 18 d 18 8 d 18 2 d 18 -3 d 18 -7 d 18 -8 d 18 -5 d 18 -1 d 18 2 d 18 2 d 18 3 d 18 6 d 18 2 d s 1 0 1 c black 1 0 1 c 338 1443 m 539 X 18 -1 d 108 X 18 -1 d 36 X
 18 -1 d 18 -1 d 18 X 18 -1 d 18 -1 d 18 -1 d 18 -2 d 18 -1 d 18 -3 d 18 -2 d 18 -3 d 18 -4 d 18 -4 d 18 -5 d 18 -6 d 18 -7 d 18 -9 d 18 -11 d 18 -12 d 18 -15 d 18 -17 d 18 -20 d 18 -24 d 18 -28 d 18 -32 d 18 -37 d 17 -42 d 18 -47 d 18 -53 d 18 -58 d
 18 -63 d 18 -66 d 18 -69 d 18 -68 d 18 -65 d 18 -60 d 18 -51 d 18 -38 d 18 -24 d 18 -8 d 18 10 d 18 26 d 18 39 d 18 47 d 18 50 d 18 47 d 18 38 d 18 27 d 18 13 d 18 2 d 18 -4 d 18 -11 d 18 -11 d 18 -8 d 18 -1 d 18 3 d 18 2 d 18 6 d 18 7 d 18 4 d s
 black 338 1443 m 1798 X s 0.754 0.715 0.676 c black 0.754 0.715 0.676 c 338 1443 m 557 X 18 -1 d 108 X 18 -1 d 18 X 18 -1 d 18 X 18 -1 d 18 X 18 -1 d 18 -1 d 18 -1 d 18 -2 d 18 -2 d 18 -2 d 18 -2 d 18 -3 d 18 -4 d 18 -4 d 18 -6 d 18 -6 d 18 -7 d 18
 -9 d 18 -11 d 18 -12 d 18 -15 d 18 -17 d 18 -20 d 18 -24 d 18 -27 d 18 -31 d 17 -36 d 18 -40 d 18 -45 d 18 -50 d 18 -53 d 18 -57 d 18 -58 d 18 -58 d 18 -55 d 18 -51 d 18 -43 d 18 -33 d 18 -20 d 18 -7 d 18 9 d 18 21 d 18 33 d 18 41 d 18 42 d 18 40 d
 18 33 d 18 22 d 18 11 d 18 3 d 18 -4 d 18 -9 d 18 -10 d 18 -6 d 18 -2 d 18 3 d 18 2 d 18 4 d 18 7 d 18 3 d s 0.35 0.33 0.85 c black 0.35 0.33 0.85 c 338 1443 m 521 X 18 -1 d 108 X 18 -1 d 36 X 18 -1 d 18 X 18 -1 d 18 -1 d 18 -1 d 18 -1 d 18 -1 d 18
 -2 d 18 -2 d 18 -2 d 18 -3 d 18 -3 d 18 -4 d 18 -5 d 18 -5 d 18 -7 d 18 -8 d 18 -10 d 18 -11 d 18 -14 d 18 -16 d 18 -19 d 18 -23 d 18 -26 d 18 -31 d 18 -35 d 18 -41 d 17 -47 d 18 -52 d 18 -59 d 18 -65 d 18 -69 d 18 -74 d 18 -75 d 18 -76 d 18 -72 d
 18 -66 d 18 -56 d 18 -43 d 18 -27 d 18 -8 d 18 11 d 18 28 d 18 43 d 18 53 d 18 55 d 18 52 d 18 43 d 18 29 d 18 14 d 18 3 d 18 -4 d 18 -12 d 18 -13 d 18 -8 d 18 -2 d 18 4 d 18 2 d 18 6 d 18 8 d 18 4 d s 0.3 0.3 0.3 c black 0.3 0.3 0.3 c 338 1443 m
 917 X 18 -1 d 90 X 18 -1 d 36 X 18 -1 d 18 X 18 -1 d 18 X 18 -1 d 18 -1 d 17 -1 d 18 -1 d 18 -1 d 18 -1 d 18 -2 d 18 -1 d 18 -2 d 18 -1 d 18 -2 d 18 -1 d 18 -1 d 18 -1 d 18 -1 d 36 X 18 1 d 18 1 d 18 1 d 18 1 d 18 1 d 18 1 d 18 X 18 1 d 36 X 18 -1 d
 144 X s 0.4 0.4 0.4 c black 0.4 0.4 0.4 c 338 1443 m 701 X 18 -1 d 90 X 18 -1 d 36 X 18 -1 d 18 X 18 -1 d 18 X 18 -1 d 18 -1 d 18 -1 d 18 -2 d 18 -2 d 18 -2 d 18 -2 d 18 -3 d 18 -3 d 18 -4 d 18 -5 d 18 -6 d 18 -6 d 18 -7 d 17 -8 d 18 -10 d 18 -10 d
 18 -12 d 18 -12 d 18 -13 d 18 -14 d 18 -13 d 18 -13 d 18 -12 d 18 -10 d 18 -8 d 18 -4 d 18 -2 d 18 2 d 18 5 d 18 8 d 18 9 d 18 10 d 18 9 d 18 8 d 18 5 d 18 3 d 18 X 18 -1 d 18 -2 d 18 -2 d 18 -1 d 18 -1 d 18 1 d 18 X 18 1 d 18 2 d 18 1 d s black
 gsave  2268 1635 0 0 C 449.633 1254.71 t 0 r /Helvetica findfont 46.2074 sf 0 0 m (No sterile oscillations) show NC gr  0.3 0.3 0.3 c black 0.3 0.3 0.3 c
 gsave  2268 1635 0 0 C 604.25 1164.07 t 0 r /Helvetica findfont 46.2074 sf 0 0 m (=0.05) show NC gr  black 0.3 0.3 0.3 c
 gsave  2268 1635 0 0 C 570.484 1149.85 t 0 r /Helvetica findfont 30.2125 sf 0 0 m (e4) show NC gr  black 0.3 0.3 0.3 c
 gsave  2268 1635 0 0 C 513.613 1164.07 t 0 r /Helvetica findfont 46.2074 sf 0 0 m (=U) show NC gr  black 0.3 0.3 0.3 c
 gsave  2268 1635 0 0 C 497.618 1149.85 t 0 r /Helvetica findfont 30.2125 sf 0 0 m (4) show NC gr  black 0.3 0.3 0.3 c
 gsave  2268 1635 0 0 C 479.846 1149.85 t 0 r /Symbol findfont 30.2125 sf 0 0 m (m) show NC gr  black 0.3 0.3 0.3 c
 gsave  2268 1635 0 0 C 449.633 1164.07 t 0 r /Helvetica findfont 46.2074 sf 0 0 m (U) show NC gr  0 1 0 c black 0 1 0 c
 gsave  2268 1635 0 0 C 604.25 1073.43 t 0 r /Helvetica findfont 46.2074 sf 0 0 m (=0.1) show NC gr  black 0 1 0 c
 gsave  2268 1635 0 0 C 570.484 1059.22 t 0 r /Helvetica findfont 30.2125 sf 0 0 m (e4) show NC gr  black 0 1 0 c
 gsave  2268 1635 0 0 C 513.613 1073.43 t 0 r /Helvetica findfont 46.2074 sf 0 0 m (=U) show NC gr  black 0 1 0 c
 gsave  2268 1635 0 0 C 497.618 1059.22 t 0 r /Helvetica findfont 30.2125 sf 0 0 m (4) show NC gr  black 0 1 0 c
 gsave  2268 1635 0 0 C 479.846 1059.22 t 0 r /Symbol findfont 30.2125 sf 0 0 m (m) show NC gr  black 0 1 0 c
 gsave  2268 1635 0 0 C 449.633 1073.43 t 0 r /Helvetica findfont 46.2074 sf 0 0 m (U) show NC gr  0.4 0.4 0.4 c black 0.4 0.4 0.4 c
 gsave  2268 1635 0 0 C 604.25 981.018 t 0 r /Helvetica findfont 46.2074 sf 0 0 m (=0.15) show NC gr  black 0.4 0.4 0.4 c
 gsave  2268 1635 0 0 C 570.484 966.801 t 0 r /Helvetica findfont 30.2125 sf 0 0 m (e4) show NC gr  black 0.4 0.4 0.4 c
 gsave  2268 1635 0 0 C 513.613 981.018 t 0 r /Helvetica findfont 46.2074 sf 0 0 m (=U) show NC gr  black 0.4 0.4 0.4 c
 gsave  2268 1635 0 0 C 497.618 966.801 t 0 r /Helvetica findfont 30.2125 sf 0 0 m (4) show NC gr  black 0.4 0.4 0.4 c
 gsave  2268 1635 0 0 C 479.846 966.801 t 0 r /Symbol findfont 30.2125 sf 0 0 m (m) show NC gr  black 0.4 0.4 0.4 c
 gsave  2268 1635 0 0 C 449.633 981.018 t 0 r /Helvetica findfont 46.2074 sf 0 0 m (U) show NC gr  0 0 1 c black 0 0 1 c
 gsave  2268 1635 0 0 C 604.25 890.381 t 0 r /Helvetica findfont 46.2074 sf 0 0 m (=0.2) show NC gr  black 0 0 1 c
 gsave  2268 1635 0 0 C 570.484 876.163 t 0 r /Helvetica findfont 30.2125 sf 0 0 m (e4) show NC gr  black 0 0 1 c
 gsave  2268 1635 0 0 C 513.613 890.381 t 0 r /Helvetica findfont 46.2074 sf 0 0 m (=U) show NC gr  black 0 0 1 c
 gsave  2268 1635 0 0 C 497.618 876.163 t 0 r /Helvetica findfont 30.2125 sf 0 0 m (4) show NC gr  black 0 0 1 c
 gsave  2268 1635 0 0 C 479.846 876.163 t 0 r /Symbol findfont 30.2125 sf 0 0 m (m) show NC gr  black 0 0 1 c
 gsave  2268 1635 0 0 C 449.633 890.381 t 0 r /Helvetica findfont 46.2074 sf 0 0 m (U) show NC gr  1 0 0 c black 1 0 0 c
 gsave  2268 1635 0 0 C 604.25 799.743 t 0 r /Helvetica findfont 46.2074 sf 0 0 m (=0.25) show NC gr  black 1 0 0 c
 gsave  2268 1635 0 0 C 570.484 785.526 t 0 r /Helvetica findfont 30.2125 sf 0 0 m (e4) show NC gr  black 1 0 0 c
 gsave  2268 1635 0 0 C 513.613 799.743 t 0 r /Helvetica findfont 46.2074 sf 0 0 m (=U) show NC gr  black 1 0 0 c
 gsave  2268 1635 0 0 C 497.618 785.526 t 0 r /Helvetica findfont 30.2125 sf 0 0 m (4) show NC gr  black 1 0 0 c
 gsave  2268 1635 0 0 C 479.846 785.526 t 0 r /Symbol findfont 30.2125 sf 0 0 m (m) show NC gr  black 1 0 0 c
 gsave  2268 1635 0 0 C 449.633 799.743 t 0 r /Helvetica findfont 46.2074 sf 0 0 m (U) show NC gr  0.35 0.83 0.33 c black 0.35 0.83 0.33 c
 gsave  2268 1635 0 0 C 604.25 707.329 t 0 r /Helvetica findfont 46.2074 sf 0 0 m (=0.3) show NC gr  black 0.35 0.83 0.33 c
 gsave  2268 1635 0 0 C 570.484 693.111 t 0 r /Helvetica findfont 30.2125 sf 0 0 m (e4) show NC gr  black 0.35 0.83 0.33 c
 gsave  2268 1635 0 0 C 513.613 707.329 t 0 r /Helvetica findfont 46.2074 sf 0 0 m (=U) show NC gr  black 0.35 0.83 0.33 c
 gsave  2268 1635 0 0 C 497.618 693.111 t 0 r /Helvetica findfont 30.2125 sf 0 0 m (4) show NC gr  black 0.35 0.83 0.33 c
 gsave  2268 1635 0 0 C 479.846 693.111 t 0 r /Symbol findfont 30.2125 sf 0 0 m (m) show NC gr  black 0.35 0.83 0.33 c
 gsave  2268 1635 0 0 C 449.633 707.329 t 0 r /Helvetica findfont 46.2074 sf 0 0 m (U) show NC gr  0.754 0.715 0.676 c black 0.754 0.715 0.676 c
 gsave  2268 1635 0 0 C 604.25 616.691 t 0 r /Helvetica findfont 46.2074 sf 0 0 m (=0.35) show NC gr  black 0.754 0.715 0.676 c
 gsave  2268 1635 0 0 C 570.484 602.473 t 0 r /Helvetica findfont 30.2125 sf 0 0 m (e4) show NC gr  black 0.754 0.715 0.676 c
 gsave  2268 1635 0 0 C 513.613 616.691 t 0 r /Helvetica findfont 46.2074 sf 0 0 m (=U) show NC gr  black 0.754 0.715 0.676 c
 gsave  2268 1635 0 0 C 497.618 602.473 t 0 r /Helvetica findfont 30.2125 sf 0 0 m (4) show NC gr  black 0.754 0.715 0.676 c
 gsave  2268 1635 0 0 C 479.846 602.473 t 0 r /Symbol findfont 30.2125 sf 0 0 m (m) show NC gr  black 0.754 0.715 0.676 c
 gsave  2268 1635 0 0 C 449.633 616.691 t 0 r /Helvetica findfont 46.2074 sf 0 0 m (U) show NC gr  1 0 1 c black 1 0 1 c
 gsave  2268 1635 0 0 C 604.25 526.053 t 0 r /Helvetica findfont 46.2074 sf 0 0 m (=0.4) show NC gr  black 1 0 1 c
 gsave  2268 1635 0 0 C 570.484 511.836 t 0 r /Helvetica findfont 30.2125 sf 0 0 m (e4) show NC gr  black 1 0 1 c
 gsave  2268 1635 0 0 C 513.613 526.053 t 0 r /Helvetica findfont 46.2074 sf 0 0 m (=U) show NC gr  black 1 0 1 c
 gsave  2268 1635 0 0 C 497.618 511.836 t 0 r /Helvetica findfont 30.2125 sf 0 0 m (4) show NC gr  black 1 0 1 c
 gsave  2268 1635 0 0 C 479.846 511.836 t 0 r /Symbol findfont 30.2125 sf 0 0 m (m) show NC gr  black 1 0 1 c
 gsave  2268 1635 0 0 C 449.633 526.053 t 0 r /Helvetica findfont 46.2074 sf 0 0 m (U) show NC gr  0.35 0.33 0.85 c black 0.35 0.33 0.85 c
 gsave  2268 1635 0 0 C 604.25 433.639 t 0 r /Helvetica findfont 46.2074 sf 0 0 m (=0.45) show NC gr  black 0.35 0.33 0.85 c
 gsave  2268 1635 0 0 C 570.484 419.421 t 0 r /Helvetica findfont 30.2125 sf 0 0 m (e4) show NC gr  black 0.35 0.33 0.85 c
 gsave  2268 1635 0 0 C 513.613 433.639 t 0 r /Helvetica findfont 46.2074 sf 0 0 m (=U) show NC gr  black 0.35 0.33 0.85 c
 gsave  2268 1635 0 0 C 497.618 419.421 t 0 r /Helvetica findfont 30.2125 sf 0 0 m (4) show NC gr  black 0.35 0.33 0.85 c
 gsave  2268 1635 0 0 C 479.846 419.421 t 0 r /Symbol findfont 30.2125 sf 0 0 m (m) show NC gr  black 0.35 0.33 0.85 c
 gsave  2268 1635 0 0 C 449.633 433.639 t 0 r /Helvetica findfont 46.2074 sf 0 0 m (U) show NC gr  0 1 1 c black 0 1 1 c
 gsave  2268 1635 0 0 C 604.25 343.001 t 0 r /Helvetica findfont 46.2074 sf 0 0 m (=0.5) show NC gr  black 0 1 1 c
 gsave  2268 1635 0 0 C 570.484 328.783 t 0 r /Helvetica findfont 30.2125 sf 0 0 m (e4) show NC gr  black 0 1 1 c
 gsave  2268 1635 0 0 C 513.613 343.001 t 0 r /Helvetica findfont 46.2074 sf 0 0 m (=U) show NC gr  black 0 1 1 c
 gsave  2268 1635 0 0 C 497.618 328.783 t 0 r /Helvetica findfont 30.2125 sf 0 0 m (4) show NC gr  black 0 1 1 c
 gsave  2268 1635 0 0 C 479.846 328.783 t 0 r /Symbol findfont 30.2125 sf 0 0 m (m) show NC gr  black 0 1 1 c
 gsave  2268 1635 0 0 C 449.633 343.001 t 0 r /Helvetica findfont 46.2074 sf 0 0 m (U) show NC gr 
 gr  gr showpage
end
%%EOF
