%!PS-Adobe-2.0 EPSF-2.0
%%BoundingBox:  0 0 567 384
%%Title: : c1
%%Creator: ROOT Version 5.34/20
%%CreationDate: Tue Oct 28 15:30:22 2014
%%EndComments
%%BeginProlog
80 dict begin
/s {stroke} def /l {lineto} def /m {moveto} def /t {translate} def
/r {rotate} def /rl {roll}  def /R {repeat} def
/d {rlineto} def /rm {rmoveto} def /gr {grestore} def /f {eofill} def
/c {setrgbcolor} def /black {0 setgray} def /sd {setdash} def
/cl {closepath} def /sf {scalefont setfont} def /lw {setlinewidth} def
/box {m dup 0 exch d exch 0 d 0 exch neg d cl} def
/NC{systemdict begin initclip end}def/C{NC box clip newpath}def
/bl {box s} def /bf {box f} def /Y { 0 exch d} def /X { 0 d} def 
/K {{pop pop 0 moveto} exch kshow} bind def
/ita {/ang 15 def gsave [1 0 ang dup sin exch cos div 1 0 0] concat} def 
/mp {newpath /y exch def /x exch def} def
/side {[w .77 mul w .23 mul] .385 w mul sd w 0 l currentpoint t -144 r} def
/mr {mp x y w2 0 360 arc} def /m24 {mr s} def /m20 {mr f} def
/mb {mp x y w2 add m w2 neg 0 d 0 w neg d w 0 d 0 w d cl} def
/mt {mp x y w2 add m w2 neg w neg d w 0 d cl} def
/m21 {mb f} def /m25 {mb s} def /m22 {mt f} def /m26{mt s} def
/m23 {mp x y w2 sub m w2 w d w neg 0 d cl f} def
/m27 {mp x y w2 add m w3 neg w2 neg d w3 w2 neg d w3 w2 d cl s} def
/m28 {mp x w2 sub y w2 sub w3 add m w3 0 d  0 w3 neg d w3 0 d 0 w3 d w3 0 d  0 w3 d w3 neg 0 d 0 w3 d w3 neg 0 d 0 w3 neg d w3 neg 0 d cl s } def
/m29 {mp gsave x w2 sub y w2 add w3 sub m currentpoint t 4 {side} repeat cl fill gr} def
/m30 {mp gsave x w2 sub y w2 add w3 sub m currentpoint t 4 {side} repeat cl s gr} def
/m31 {mp x y w2 sub m 0 w d x w2 sub y m w 0 d x w2 sub y w2 add m w w neg d x w2 sub y w2 sub m w w d s} def
/m32 {mp x y w2 sub m w2 w d w neg 0 d cl s} def
/m33 {mp x y w2 add m w3 neg w2 neg d w3 w2 neg d w3 w2 d cl f} def
/m34 {mp x w2 sub y w2 sub w3 add m w3 0 d  0 w3 neg d w3 0 d 0 w3 d w3 0 d  0 w3 d w3 neg 0 d 0 w3 d w3 neg 0 d 0 w3 neg d w3 neg 0 d cl f } def
/m2 {mp x y w2 sub m 0 w d x w2 sub y m w 0 d s} def
/m5 {mp x w2 sub y w2 sub m w w d x w2 sub y w2 add m w w neg d s} def
/reEncode {exch findfont dup length dict begin {1 index /FID eq  {pop pop} {def} ifelse } forall /Encoding exch def currentdict end dup /FontName get exch definefont pop } def [/Times-Bold /Times-Italic /Times-BoldItalic /Helvetica /Helvetica-Oblique
 /Helvetica-Bold /Helvetica-BoldOblique /Courier /Courier-Oblique /Courier-Bold /Courier-BoldOblique /Times-Roman /AvantGarde-Book /AvantGarde-BookOblique /AvantGarde-Demi /AvantGarde-DemiOblique /Bookman-Demi /Bookman-DemiItalic /Bookman-Light
 /Bookman-LightItalic /Helvetica-Narrow /Helvetica-Narrow-Bold /Helvetica-Narrow-BoldOblique /Helvetica-Narrow-Oblique /NewCenturySchlbk-Roman /NewCenturySchlbk-Bold /NewCenturySchlbk-BoldItalic /NewCenturySchlbk-Italic /Palatino-Bold
 /Palatino-BoldItalic /Palatino-Italic /Palatino-Roman ] {ISOLatin1Encoding reEncode } forall
%%EndProlog
%%BeginSetup
%%EndSetup
newpath  gsave  .25 .25 scale  gsave  0 0 t black[  ] 0 sd 3 lw 1 1 1 c 2268 1538 0 0 bf black 1 1 1 c 1814 1230 227 154 bf black 1814 1230 227 154 bl 1 1 1 c 1814 1230 227 154 bf black 1814 1230 227 154 bl 1 0 0 c 6 lw 1 1 1 c black 1 0 0 c 236 154
 m 54 X 18 3 d 19 14 d 18 68 d 18 110 d 18 146 d 18 213 d 18 198 d 18 119 d 19 197 d 18 104 d 18 -14 d 18 -1 d 18 -26 d 18 -47 d 18 -40 d 19 -101 d 18 -107 d 18 -116 d 18 -73 d 18 -104 d 18 -10 d 18 -92 d 19 -89 d 18 -36 d 18 -49 d 18 -48 d 18 -32 d
 18 4 d 18 -28 d 19 -20 d 18 -41 d 18 9 d 18 -9 d 18 -25 d 18 6 d 18 -25 d 19 12 d 18 -8 d 18 -6 d 18 4 d 18 -14 d 18 14 d 18 -7 d 19 -10 d 18 -8 d 18 10 d s 1125 199 m 18 -1 d 18 -1 d 18 5 d 18 1 d 18 -8 d 19 4 d 18 -3 d 18 -6 d 18 4 d 18 1 d 18 -10
 d 18 -1 d 19 6 d 18 -12 d 18 6 d 18 -5 d 18 3 d 18 1 d 18 -8 d 19 -1 d 18 1 d 18 1 d 18 -2 d 18 2 d 18 -6 d 18 X 19 -2 d 18 X 18 -2 d 18 -1 d 18 -1 d 18 -2 d 18 2 d 19 2 d 18 X 18 -6 d 18 1 d 18 1 d 18 -2 d 18 X 19 1 d 18 -4 d 18 2 d 18 -3 d 18 3 d
 18 -2 d 18 2 d 19 -1 d 18 X s 2014 158 m 18 -3 d s black 3 lw 1 1 1 c 453 123 1769 1315 bf black 1769 1315 m 453 X s 2222 1315 m 123 Y s 2222 1438 m -453 X s 1769 1438 m -123 Y s
 gsave  2268 1538 0 0 C 1788.76 1388 t 0 r /Helvetica findfont 48.8732 sf 0 0 m (Mean  ) show NC gr 
 gsave  2268 1538 0 0 C 2049.42 1388 t 0 r /Helvetica findfont 48.8732 sf 0 0 m (  1.294) show NC gr 
 gsave  2268 1538 0 0 C 1788.76 1332.61 t 0 r /Helvetica findfont 48.8732 sf 0 0 m (Integral ) show NC gr 
 gsave  2268 1538 0 0 C 1951.67 1326.09 t 0 r /Helvetica findfont 48.8732 sf 0 0 m ( 2.184e+04) show NC gr  227 154 m 1814 X s
 gsave  2268 1538 0 0 C 1743.14 55.3896 t 0 r /Helvetica findfont 48.8732 sf 0 0 m (Energy \(GeV\)) show NC gr  227 191 m -37 Y s 287 172 m -18 Y s 348 172 m -18 Y s 408 172 m -18 Y s 469 172 m -18 Y s 529 191 m -37 Y s 590 172 m -18 Y s 650 172 m
 -18 Y s 711 172 m -18 Y s 771 172 m -18 Y s 831 191 m -37 Y s 892 172 m -18 Y s 952 172 m -18 Y s 1013 172 m -18 Y s 1073 172 m -18 Y s 1134 191 m -37 Y s 1194 172 m -18 Y s 1255 172 m -18 Y s 1315 172 m -18 Y s 1376 172 m -18 Y s 1436 191 m -37 Y s
 1497 172 m -18 Y s 1557 172 m -18 Y s 1618 172 m -18 Y s 1678 172 m -18 Y s 1739 191 m -37 Y s 1799 172 m -18 Y s 1860 172 m -18 Y s 1920 172 m -18 Y s 1980 172 m -18 Y s 2041 191 m -37 Y s 2041 191 m -37 Y s
 gsave  2268 1538 0 0 C 211.784 104.263 t 0 r /Helvetica findfont 48.8732 sf 0 0 m (0) show NC gr 
 gsave  2268 1538 0 0 C 514.798 104.263 t 0 r /Helvetica findfont 48.8732 sf 0 0 m (1) show NC gr 
 gsave  2268 1538 0 0 C 817.812 104.263 t 0 r /Helvetica findfont 48.8732 sf 0 0 m (2) show NC gr 
 gsave  2268 1538 0 0 C 1120.83 104.263 t 0 r /Helvetica findfont 48.8732 sf 0 0 m (3) show NC gr 
 gsave  2268 1538 0 0 C 1420.58 104.263 t 0 r /Helvetica findfont 48.8732 sf 0 0 m (4) show NC gr 
 gsave  2268 1538 0 0 C 1723.59 104.263 t 0 r /Helvetica findfont 48.8732 sf 0 0 m (5) show NC gr 
 gsave  2268 1538 0 0 C 2026.61 104.263 t 0 r /Helvetica findfont 48.8732 sf 0 0 m (6) show NC gr  227 154 m 1230 Y s
 gsave  2268 1538 0 0 C 117.296 1234.86 t 90 r /Helvetica findfont 48.8732 sf 0 0 m (Events) show NC gr  281 154 m -54 X s 254 198 m -27 X s 254 242 m -27 X s 254 286 m -27 X s 281 330 m -54 X s 254 374 m -27 X s 254 418 m -27 X s 254 462 m -27 X s
 281 506 m -54 X s 254 550 m -27 X s 254 594 m -27 X s 254 638 m -27 X s 281 682 m -54 X s 254 726 m -27 X s 254 770 m -27 X s 254 814 m -27 X s 281 858 m -54 X s 254 902 m -27 X s 254 945 m -27 X s 254 989 m -27 X s 281 1033 m -54 X s 254 1077 m -27
 X s 254 1121 m -27 X s 254 1165 m -27 X s 281 1209 m -54 X s 281 1209 m -54 X s 254 1253 m -27 X s 254 1297 m -27 X s 254 1341 m -27 X s
 gsave  2268 1538 0 0 C 188.976 136.845 t 0 r /Helvetica findfont 48.8732 sf 0 0 m (0) show NC gr 
 gsave  2268 1538 0 0 C 133.587 312.788 t 0 r /Helvetica findfont 48.8732 sf 0 0 m (200) show NC gr 
 gsave  2268 1538 0 0 C 133.587 488.732 t 0 r /Helvetica findfont 48.8732 sf 0 0 m (400) show NC gr 
 gsave  2268 1538 0 0 C 133.587 664.676 t 0 r /Helvetica findfont 48.8732 sf 0 0 m (600) show NC gr 
 gsave  2268 1538 0 0 C 133.587 840.619 t 0 r /Helvetica findfont 48.8732 sf 0 0 m (800) show NC gr 
 gsave  2268 1538 0 0 C 107.521 1016.56 t 0 r /Helvetica findfont 48.8732 sf 0 0 m (1000) show NC gr 
 gsave  2268 1538 0 0 C 107.521 1192.51 t 0 r /Helvetica findfont 48.8732 sf 0 0 m (1200) show NC gr  1 1 1 c 453 123 1769 1315 bf black 1769 1315 m 453 X s 2222 1315 m 123 Y s 2222 1438 m -453 X s 1769 1438 m -123 Y s
 gsave  2268 1538 0 0 C 1788.76 1388 t 0 r /Helvetica findfont 48.8732 sf 0 0 m (Mean  ) show NC gr 
 gsave  2268 1538 0 0 C 2049.42 1388 t 0 r /Helvetica findfont 48.8732 sf 0 0 m (  1.294) show NC gr 
 gsave  2268 1538 0 0 C 1788.76 1332.61 t 0 r /Helvetica findfont 48.8732 sf 0 0 m (Integral ) show NC gr 
 gsave  2268 1538 0 0 C 1951.67 1326.09 t 0 r /Helvetica findfont 48.8732 sf 0 0 m ( 2.184e+04) show NC gr  0 0 0.6 c 1 1 1 c black 0 0 0.6 c 227 154 m 72 X 3 Y 18 X 14 Y 19 X 68 Y 18 X 110 Y 18 X 146 Y 18 X 213 Y 18 X 198 Y 18 X 119 Y 18 X 197 Y 19
 X 104 Y 18 X -14 Y 18 X -1 Y 18 X -26 Y 18 X -47 Y 18 X -40 Y 18 X -101 Y 19 X -107 Y 18 X -116 Y 18 X -73 Y 18 X -104 Y 18 X -10 Y 18 X -92 Y 18 X -89 Y 19 X -36 Y 18 X -49 Y 18 X -48 Y 18 X -32 Y 18 X 4 Y 18 X -28 Y 18 X -20 Y 19 X -41 Y 18 X 9 Y
 18 X -9 Y 18 X -25 Y 18 X 6 Y 18 X -25 Y 18 X 12 Y 19 X -8 Y 18 X -6 Y 18 X 4 Y 18 X -14 Y 18 X 14 Y 18 X -7 Y 18 X -10 Y 19 X -8 Y 18 X 10 Y 18 X -1 Y 18 X -1 Y 18 X 5 Y 18 X 1 Y 18 X -8 Y 19 X 4 Y 18 X -3 Y 18 X -6 Y 18 X 4 Y 18 X 1 Y 18 X -10 Y
 18 X -1 Y 19 X 6 Y 18 X -12 Y 18 X 6 Y 18 X -5 Y 18 X 3 Y 18 X 1 Y 18 X -8 Y 19 X -1 Y 18 X 1 Y 18 X 1 Y 18 X -2 Y 18 X 2 Y 18 X -6 Y 37 X -2 Y 36 X -2 Y 18 X -1 Y 18 X -1 Y 18 X -2 Y 18 X 2 Y 19 X 2 Y 36 X -6 Y 18 X 1 Y 18 X 1 Y 18 X -2 Y 37 X 1 Y
 18 X -4 Y 18 X 2 Y 18 X -3 Y 18 X 3 Y 18 X -2 Y 18 X 2 Y 19 X -1 Y 36 X -3 Y 18 X s 1 1 1 c black
 gsave  2268 1538 0 0 C 534.347 1462.94 t 0 r /Helvetica findfont 74.9389 sf 0 0 m 
 1134 1092 1067 1047 1009 968 926 877 856 819 777 752 711 669 620 599 545 492 450 425 375 334 313 272 230 210 168 127 110 69
(Weighted LAr1ND Energy Spectrum) K NC gr 
 gr  gr showpage
end
%%EOF
