%!PS-Adobe-2.0 EPSF-2.0
%%BoundingBox:  0 0 567 384
%%Title: /afs/hep.man.ac.uk/u/chill/Manchester/MPhys/Git/week5-plots/Wgtubenergyspec.eps: c1_n2
%%Creator: ROOT Version 5.34/20
%%CreationDate: Tue Oct 28 15:30:00 2014
%%EndComments
%%BeginProlog
80 dict begin
/s {stroke} def /l {lineto} def /m {moveto} def /t {translate} def
/r {rotate} def /rl {roll}  def /R {repeat} def
/d {rlineto} def /rm {rmoveto} def /gr {grestore} def /f {eofill} def
/c {setrgbcolor} def /black {0 setgray} def /sd {setdash} def
/cl {closepath} def /sf {scalefont setfont} def /lw {setlinewidth} def
/box {m dup 0 exch d exch 0 d 0 exch neg d cl} def
/NC{systemdict begin initclip end}def/C{NC box clip newpath}def
/bl {box s} def /bf {box f} def /Y { 0 exch d} def /X { 0 d} def 
/K {{pop pop 0 moveto} exch kshow} bind def
/ita {/ang 15 def gsave [1 0 ang dup sin exch cos div 1 0 0] concat} def 
/mp {newpath /y exch def /x exch def} def
/side {[w .77 mul w .23 mul] .385 w mul sd w 0 l currentpoint t -144 r} def
/mr {mp x y w2 0 360 arc} def /m24 {mr s} def /m20 {mr f} def
/mb {mp x y w2 add m w2 neg 0 d 0 w neg d w 0 d 0 w d cl} def
/mt {mp x y w2 add m w2 neg w neg d w 0 d cl} def
/m21 {mb f} def /m25 {mb s} def /m22 {mt f} def /m26{mt s} def
/m23 {mp x y w2 sub m w2 w d w neg 0 d cl f} def
/m27 {mp x y w2 add m w3 neg w2 neg d w3 w2 neg d w3 w2 d cl s} def
/m28 {mp x w2 sub y w2 sub w3 add m w3 0 d  0 w3 neg d w3 0 d 0 w3 d w3 0 d  0 w3 d w3 neg 0 d 0 w3 d w3 neg 0 d 0 w3 neg d w3 neg 0 d cl s } def
/m29 {mp gsave x w2 sub y w2 add w3 sub m currentpoint t 4 {side} repeat cl fill gr} def
/m30 {mp gsave x w2 sub y w2 add w3 sub m currentpoint t 4 {side} repeat cl s gr} def
/m31 {mp x y w2 sub m 0 w d x w2 sub y m w 0 d x w2 sub y w2 add m w w neg d x w2 sub y w2 sub m w w d s} def
/m32 {mp x y w2 sub m w2 w d w neg 0 d cl s} def
/m33 {mp x y w2 add m w3 neg w2 neg d w3 w2 neg d w3 w2 d cl f} def
/m34 {mp x w2 sub y w2 sub w3 add m w3 0 d  0 w3 neg d w3 0 d 0 w3 d w3 0 d  0 w3 d w3 neg 0 d 0 w3 d w3 neg 0 d 0 w3 neg d w3 neg 0 d cl f } def
/m2 {mp x y w2 sub m 0 w d x w2 sub y m w 0 d s} def
/m5 {mp x w2 sub y w2 sub m w w d x w2 sub y w2 add m w w neg d s} def
/reEncode {exch findfont dup length dict begin {1 index /FID eq  {pop pop} {def} ifelse } forall /Encoding exch def currentdict end dup /FontName get exch definefont pop } def [/Times-Bold /Times-Italic /Times-BoldItalic /Helvetica /Helvetica-Oblique
 /Helvetica-Bold /Helvetica-BoldOblique /Courier /Courier-Oblique /Courier-Bold /Courier-BoldOblique /Times-Roman /AvantGarde-Book /AvantGarde-BookOblique /AvantGarde-Demi /AvantGarde-DemiOblique /Bookman-Demi /Bookman-DemiItalic /Bookman-Light
 /Bookman-LightItalic /Helvetica-Narrow /Helvetica-Narrow-Bold /Helvetica-Narrow-BoldOblique /Helvetica-Narrow-Oblique /NewCenturySchlbk-Roman /NewCenturySchlbk-Bold /NewCenturySchlbk-BoldItalic /NewCenturySchlbk-Italic /Palatino-Bold
 /Palatino-BoldItalic /Palatino-Italic /Palatino-Roman ] {ISOLatin1Encoding reEncode } forall
%%EndProlog
%%BeginSetup
%%EndSetup
newpath  gsave  .25 .25 scale  gsave  0 0 t black[  ] 0 sd 3 lw 1 1 1 c 2268 1538 0 0 bf black 1 1 1 c 1814 1230 227 154 bf black 1814 1230 227 154 bl 1 1 1 c 1814 1230 227 154 bf black 1814 1230 227 154 bl 1 0 0 c 6 lw 1 1 1 c black 1 0 0 c 236 154
 m 54 X 18 2 d 19 9 d 18 46 d 18 104 d 18 105 d 18 163 d 18 120 d 18 136 d 19 121 d 18 124 d 18 50 d 18 87 d 18 39 d 18 2 d 18 64 d 19 -33 d 18 -86 d 18 9 d 18 -66 d 18 -73 d 18 -100 d 18 -99 d 19 -70 d 18 -89 d 18 -77 d 18 -79 d 18 -64 d 18 -69 d 18
 -46 d 19 -59 d 18 -32 d 18 -35 d 18 3 d 18 -31 d 18 -4 d 18 -8 d 19 3 d 18 -22 d 18 -6 d 18 -3 d 18 11 d 18 3 d 18 -4 d 19 -11 d 18 4 d 18 -1 d s 1125 192 m 18 2 d 18 -2 d 18 3 d 18 -6 d 18 -1 d 19 -6 d 18 2 d 18 -1 d 18 1 d 18 -6 d 18 7 d 18 -3 d
 19 2 d 18 -2 d 18 -2 d 18 -8 d 18 11 d 18 -7 d 18 X 19 -4 d 18 10 d 18 -4 d 18 -4 d 18 1 d 18 -3 d 18 -11 d 19 8 d 18 -4 d 18 1 d 18 4 d 18 -7 d 18 X 18 6 d 19 -6 d 18 2 d 18 -5 d 18 4 d 18 -7 d 18 4 d 18 -4 d 19 6 d 18 6 d 18 -11 d 18 2 d 18 -1 d
 18 -1 d 18 -1 d 19 4 d 18 -4 d s 2014 157 m 18 -1 d s black 3 lw 1 1 1 c 453 123 1769 1315 bf black 1769 1315 m 453 X s 2222 1315 m 123 Y s 2222 1438 m -453 X s 1769 1438 m -123 Y s
 gsave  2268 1538 0 0 C 1788.76 1388 t 0 r /Helvetica findfont 52.1314 sf 0 0 m (Mean  ) show NC gr 
 gsave  2268 1538 0 0 C 2039.64 1388 t 0 r /Helvetica findfont 52.1314 sf 0 0 m (  1.352) show NC gr 
 gsave  2268 1538 0 0 C 1788.76 1329.35 t 0 r /Helvetica findfont 52.1314 sf 0 0 m (Integral ) show NC gr 
 gsave  2268 1538 0 0 C 2039.64 1326.09 t 0 r /Helvetica findfont 52.1314 sf 0 0 m (   3553) show NC gr  227 154 m 1814 X s
 gsave  2268 1538 0 0 C 1743.14 55.3896 t 0 r /Helvetica findfont 48.8732 sf 0 0 m (Energy \(GeV\)) show NC gr  227 191 m -37 Y s 287 172 m -18 Y s 348 172 m -18 Y s 408 172 m -18 Y s 469 172 m -18 Y s 529 191 m -37 Y s 590 172 m -18 Y s 650 172 m
 -18 Y s 711 172 m -18 Y s 771 172 m -18 Y s 831 191 m -37 Y s 892 172 m -18 Y s 952 172 m -18 Y s 1013 172 m -18 Y s 1073 172 m -18 Y s 1134 191 m -37 Y s 1194 172 m -18 Y s 1255 172 m -18 Y s 1315 172 m -18 Y s 1376 172 m -18 Y s 1436 191 m -37 Y s
 1497 172 m -18 Y s 1557 172 m -18 Y s 1618 172 m -18 Y s 1678 172 m -18 Y s 1739 191 m -37 Y s 1799 172 m -18 Y s 1860 172 m -18 Y s 1920 172 m -18 Y s 1980 172 m -18 Y s 2041 191 m -37 Y s 2041 191 m -37 Y s
 gsave  2268 1538 0 0 C 211.784 104.263 t 0 r /Helvetica findfont 48.8732 sf 0 0 m (0) show NC gr 
 gsave  2268 1538 0 0 C 514.798 104.263 t 0 r /Helvetica findfont 48.8732 sf 0 0 m (1) show NC gr 
 gsave  2268 1538 0 0 C 817.812 104.263 t 0 r /Helvetica findfont 48.8732 sf 0 0 m (2) show NC gr 
 gsave  2268 1538 0 0 C 1120.83 104.263 t 0 r /Helvetica findfont 48.8732 sf 0 0 m (3) show NC gr 
 gsave  2268 1538 0 0 C 1420.58 104.263 t 0 r /Helvetica findfont 48.8732 sf 0 0 m (4) show NC gr 
 gsave  2268 1538 0 0 C 1723.59 104.263 t 0 r /Helvetica findfont 48.8732 sf 0 0 m (5) show NC gr 
 gsave  2268 1538 0 0 C 2026.61 104.263 t 0 r /Helvetica findfont 48.8732 sf 0 0 m (6) show NC gr  227 154 m 1230 Y s
 gsave  2268 1538 0 0 C 117.296 1234.86 t 90 r /Helvetica findfont 48.8732 sf 0 0 m (Events) show NC gr  281 154 m -54 X s 254 183 m -27 X s 254 213 m -27 X s 254 243 m -27 X s 281 273 m -54 X s 254 302 m -27 X s 254 332 m -27 X s 254 362 m -27 X s
 281 391 m -54 X s 254 421 m -27 X s 254 451 m -27 X s 254 480 m -27 X s 281 510 m -54 X s 254 540 m -27 X s 254 570 m -27 X s 254 599 m -27 X s 281 629 m -54 X s 254 659 m -27 X s 254 688 m -27 X s 254 718 m -27 X s 281 748 m -54 X s 254 777 m -27 X
 s 254 807 m -27 X s 254 837 m -27 X s 281 866 m -54 X s 254 896 m -27 X s 254 926 m -27 X s 254 956 m -27 X s 281 985 m -54 X s 254 1015 m -27 X s 254 1045 m -27 X s 254 1074 m -27 X s 281 1104 m -54 X s 254 1134 m -27 X s 254 1163 m -27 X s 254
 1193 m -27 X s 281 1223 m -54 X s 254 1253 m -27 X s 254 1282 m -27 X s 254 1312 m -27 X s 281 1342 m -54 X s 281 1342 m -54 X s 254 1371 m -27 X s
 gsave  2268 1538 0 0 C 188.976 136.845 t 0 r /Helvetica findfont 48.8732 sf 0 0 m (0) show NC gr 
 gsave  2268 1538 0 0 C 159.652 254.141 t 0 r /Helvetica findfont 48.8732 sf 0 0 m (20) show NC gr 
 gsave  2268 1538 0 0 C 159.652 374.695 t 0 r /Helvetica findfont 48.8732 sf 0 0 m (40) show NC gr 
 gsave  2268 1538 0 0 C 159.652 491.99 t 0 r /Helvetica findfont 48.8732 sf 0 0 m (60) show NC gr 
 gsave  2268 1538 0 0 C 159.652 612.544 t 0 r /Helvetica findfont 48.8732 sf 0 0 m (80) show NC gr 
 gsave  2268 1538 0 0 C 133.587 729.84 t 0 r /Helvetica findfont 48.8732 sf 0 0 m (100) show NC gr 
 gsave  2268 1538 0 0 C 133.587 847.135 t 0 r /Helvetica findfont 48.8732 sf 0 0 m (120) show NC gr 
 gsave  2268 1538 0 0 C 133.587 967.689 t 0 r /Helvetica findfont 48.8732 sf 0 0 m (140) show NC gr 
 gsave  2268 1538 0 0 C 133.587 1084.98 t 0 r /Helvetica findfont 48.8732 sf 0 0 m (160) show NC gr 
 gsave  2268 1538 0 0 C 133.587 1205.54 t 0 r /Helvetica findfont 48.8732 sf 0 0 m (180) show NC gr 
 gsave  2268 1538 0 0 C 133.587 1322.83 t 0 r /Helvetica findfont 48.8732 sf 0 0 m (200) show NC gr  1 1 1 c 453 123 1769 1315 bf black 1769 1315 m 453 X s 2222 1315 m 123 Y s 2222 1438 m -453 X s 1769 1438 m -123 Y s
 gsave  2268 1538 0 0 C 1788.76 1388 t 0 r /Helvetica findfont 52.1314 sf 0 0 m (Mean  ) show NC gr 
 gsave  2268 1538 0 0 C 2039.64 1388 t 0 r /Helvetica findfont 52.1314 sf 0 0 m (  1.352) show NC gr 
 gsave  2268 1538 0 0 C 1788.76 1329.35 t 0 r /Helvetica findfont 52.1314 sf 0 0 m (Integral ) show NC gr 
 gsave  2268 1538 0 0 C 2039.64 1326.09 t 0 r /Helvetica findfont 52.1314 sf 0 0 m (   3553) show NC gr  0 0 0.6 c 1 1 1 c black 0 0 0.6 c 227 154 m 72 X 2 Y 18 X 9 Y 19 X 46 Y 18 X 104 Y 18 X 105 Y 18 X 163 Y 18 X 120 Y 18 X 136 Y 18 X 121 Y 19 X
 124 Y 18 X 50 Y 18 X 87 Y 18 X 39 Y 18 X 2 Y 18 X 64 Y 18 X -33 Y 19 X -86 Y 18 X 9 Y 18 X -66 Y 18 X -73 Y 18 X -100 Y 18 X -99 Y 18 X -70 Y 19 X -89 Y 18 X -77 Y 18 X -79 Y 18 X -64 Y 18 X -69 Y 18 X -46 Y 18 X -59 Y 19 X -32 Y 18 X -35 Y 18 X 3 Y
 18 X -31 Y 18 X -4 Y 18 X -8 Y 18 X 3 Y 19 X -22 Y 18 X -6 Y 18 X -3 Y 18 X 11 Y 18 X 3 Y 18 X -4 Y 18 X -11 Y 19 X 4 Y 18 X -1 Y 18 X 2 Y 18 X -2 Y 18 X 3 Y 18 X -6 Y 18 X -1 Y 19 X -6 Y 18 X 2 Y 18 X -1 Y 18 X 1 Y 18 X -6 Y 18 X 7 Y 18 X -3 Y 19 X
 2 Y 18 X -2 Y 18 X -2 Y 18 X -8 Y 18 X 11 Y 18 X -7 Y 37 X -4 Y 18 X 10 Y 18 X -4 Y 18 X -4 Y 18 X 1 Y 18 X -3 Y 18 X -11 Y 19 X 8 Y 18 X -4 Y 18 X 1 Y 18 X 4 Y 18 X -7 Y 36 X 6 Y 19 X -6 Y 18 X 2 Y 18 X -5 Y 18 X 4 Y 18 X -7 Y 18 X 4 Y 18 X -4 Y 19
 X 6 Y 18 X 6 Y 18 X -11 Y 18 X 2 Y 18 X -1 Y 18 X -1 Y 18 X -1 Y 19 X 4 Y 18 X -4 Y 18 X -1 Y 18 X s 1 1 1 c black
 gsave  2268 1538 0 0 C 456.15 1462.94 t 0 r /Helvetica findfont 74.9389 sf 0 0 m 
 1287 1245 1220 1200 1162 1121 1079 1030 1009 972 930 905 864 822 773 752 702 649 607 566 516 474 450 412 396 334 313 272 230 210 168 126 110 69
(Weighted MicroBooNE Energy Spectrum) K NC gr 
 gr  gr showpage
end
%%EOF
